Crash Course in Data Science
…
temp_2015

## # A tibble: 158 x 12
##    Country Region HappinessRank `Happiness Scor~ `Standard Error`
##    <chr>   <chr>          <dbl>            <dbl>            <dbl>
##  1 Switze~ Weste~             1             7.59           0.0341
##  2 Iceland Weste~             2             7.56           0.0488
##  3 Denmark Weste~             3             7.53           0.0333
##  4 Norway  Weste~             4             7.52           0.0388
##  5 Canada  North~             5             7.43           0.0355
##  6 Finland Weste~             6             7.41           0.0314
##  7 Nether~ Weste~             7             7.38           0.0280
##  8 Sweden  Weste~             8             7.36           0.0316
##  9 New Ze~ Austr~             9             7.29           0.0337
## 10 Austra~ Austr~            10             7.28           0.0408
## # ... with 148 more rows, and 7 more variables: `Economy (GDP per
## #   Capita)` <dbl>, Family <dbl>, `Health (Life Expectancy)` <dbl>,
## #   Freedom <dbl>, `Trust (Government Corruption)` <dbl>,
## #   Generosity <dbl>, `Dystopia Residual` <dbl>

temp_2016

## # A tibble: 157 x 13
##    Country Region `Happiness Rank` `Happiness Scor~ `Lower Confiden~
##    <chr>   <chr>             <dbl>            <dbl>            <dbl>
##  1 Denmark Weste~                1             7.53             7.46
##  2 Switze~ Weste~                2             7.51             7.43
##  3 Iceland Weste~                3             7.50             7.33
##  4 Norway  Weste~                4             7.50             7.42
##  5 Finland Weste~                5             7.41             7.35
##  6 Canada  North~                6             7.40             7.34
##  7 Nether~ Weste~                7             7.34             7.28
##  8 New Ze~ Austr~                8             7.33             7.26
##  9 Austra~ Austr~                9             7.31             7.24
## 10 Sweden  Weste~               10             7.29             7.23
## # ... with 147 more rows, and 8 more variables: `Upper Confidence
## #   Interval` <dbl>, `Economy (GDP per Capita)` <dbl>, Family <dbl>,
## #   `Health (Life Expectancy)` <dbl>, Freedom <dbl>, `Trust (Government
## #   Corruption)` <dbl>, Generosity <dbl>, `Dystopia Residual` <dbl>

temp_2017

## # A tibble: 155 x 12
##    Country Happiness.Rank Happiness.Score Whisker.high Whisker.low
##    <chr>            <dbl>           <dbl>        <dbl>       <dbl>
##  1 Norway               1            7.54         7.59        7.48
##  2 Denmark              2            7.52         7.58        7.46
##  3 Iceland              3            7.50         7.62        7.39
##  4 Switze~              4            7.49         7.56        7.43
##  5 Finland              5            7.47         7.53        7.41
##  6 Nether~              6            7.38         7.43        7.33
##  7 Canada               7            7.32         7.38        7.25
##  8 New Ze~              8            7.31         7.38        7.25
##  9 Sweden               9            7.28         7.34        7.22
## 10 Austra~             10            7.28         7.36        7.21
## # ... with 145 more rows, and 7 more variables:
## #   Economy..GDP.per.Capita. <dbl>, Family <dbl>,
## #   Health..Life.Expectancy. <dbl>, Freedom <dbl>, Generosity <dbl>,
## #   Trust..Government.Corruption. <dbl>, Dystopia.Residual <dbl>
…
Insights: The internet is home to so much data that is ready and waiting to be used in further data science exploration and analysis. Any interest and research in minutes can give you an immense about of information that can be further collected into RStudio. RStudio is a powerful tool that can be used to further explore this data. Subsequent sections in this tutorial will show how to further process and analyze such data sets.

4 Processing the data

Before processing the collected data.frame(s), a few key RStudio operations and concepts involving one table can be found here for reference: Basic Operations -> http://www.hcbravo.org/IntroDataSci/bookdown-notes/principles-basic-operations.html and More Operations -> http://www.hcbravo.org/IntroDataSci/bookdown-notes/principles-more-operations.html.

tab_2015 <-
  select(temp_2015,-c(Region))
tab_2016 <-
  select(temp_2016,-c(Region))

tab_2015

## # A tibble: 158 x 11
##    Country HappinessRank `Happiness Scor~ `Standard Error` `Economy (GDP p~
##    <chr>           <dbl>            <dbl>            <dbl>            <dbl>
##  1 Switze~             1             7.59           0.0341             1.40
##  2 Iceland             2             7.56           0.0488             1.30
##  3 Denmark             3             7.53           0.0333             1.33
##  4 Norway              4             7.52           0.0388             1.46
##  5 Canada              5             7.43           0.0355             1.33
##  6 Finland             6             7.41           0.0314             1.29
##  7 Nether~             7             7.38           0.0280             1.33
##  8 Sweden              8             7.36           0.0316             1.33
##  9 New Ze~             9             7.29           0.0337             1.25
## 10 Austra~            10             7.28           0.0408             1.33
## # ... with 148 more rows, and 6 more variables: Family <dbl>, `Health
## #   (Life Expectancy)` <dbl>, Freedom <dbl>, `Trust (Government
## #   Corruption)` <dbl>, Generosity <dbl>, `Dystopia Residual` <dbl>

tab_2016 

## # A tibble: 157 x 12
##    Country `Happiness Rank` `Happiness Scor~ `Lower Confiden~
##    <chr>              <dbl>            <dbl>            <dbl>
##  1 Denmark                1             7.53             7.46
##  2 Switze~                2             7.51             7.43
##  3 Iceland                3             7.50             7.33
##  4 Norway                 4             7.50             7.42
##  5 Finland                5             7.41             7.35
##  6 Canada                 6             7.40             7.34
##  7 Nether~                7             7.34             7.28
##  8 New Ze~                8             7.33             7.26
##  9 Austra~                9             7.31             7.24
## 10 Sweden                10             7.29             7.23
## # ... with 147 more rows, and 8 more variables: `Upper Confidence
## #   Interval` <dbl>, `Economy (GDP per Capita)` <dbl>, Family <dbl>,
## #   `Health (Life Expectancy)` <dbl>, Freedom <dbl>, `Trust (Government
## #   Corruption)` <dbl>, Generosity <dbl>, `Dystopia Residual` <dbl>
…
